R for the Bertelsmann Data Science Scholarship Program
…
SELECT * 
FROM orders

is equivalent to

select(.data = orders, everything())
# SELECT FROM orders: everything!

or using the pipe

orders %>% 
  select(everything())
# FROM orders, SELECT everything!

#> # A tibble: 6,912 x 11
#>       id account_id occurred_at         standard_qty gloss_qty poster_qty
#>    <int>      <int> <dttm>                     <int>     <int>      <int>
#>  1     1       1001 2015-10-06 17:31:14          123        22         24
#>  2     2       1001 2015-11-05 03:34:33          190        41         57
#>  3     3       1001 2015-12-04 04:21:55           85        47         NA
#>  4     4       1001 2016-01-02 01:18:24          144        32         NA
#>  5     5       1001 2016-02-01 19:27:27          108        29         28
#>  6     6       1001 2016-03-02 15:29:32          103        24         46
#>  7     7       1001 2016-04-01 11:20:18          101        33         92
#>  8     8       1001 2016-05-01 15:55:51           95        47        151
#>  9     9       1001 2016-05-31 21:22:48           91        16         22
#> 10    10       1001 2016-06-30 12:32:05           94        46          8
#> # ... with 6,902 more rows, and 5 more variables: total <int>,
#> #   standard_amt_usd <dbl>, gloss_amt_usd <dbl>, poster_amt_usd <dbl>,
#> #   total_amt_usd <dbl>
…
9
1001
2016-05-31 21:22:48

10
1001
2016-06-30 12:32:05

orders %>% 
  select(id, account_id, occurred_at)

#> # A tibble: 6,912 x 3
#>       id account_id occurred_at        
#>    <int>      <int> <dttm>             
#>  1     1       1001 2015-10-06 17:31:14
#>  2     2       1001 2015-11-05 03:34:33
#>  3     3       1001 2015-12-04 04:21:55
#>  4     4       1001 2016-01-02 01:18:24
#>  5     5       1001 2016-02-01 19:27:27
#>  6     6       1001 2016-03-02 15:29:32
#>  7     7       1001 2016-04-01 11:20:18
#>  8     8       1001 2016-05-01 15:55:51
#>  9     9       1001 2016-05-31 21:22:48
#> 10    10       1001 2016-06-30 12:32:05
#> # ... with 6,902 more rows
…
